{
  "application": "am",
  "resourcePath": "/dw/rest/v1/service-types",
  "pagingStrategy": "page,100,content,page.totalPages",
  "title": "Service Types",
  "needRole": [ "AM_ROLE_ADMIN", "role-admin" ],
  "dropBeforeRefresh": true,
  "mergeBeforeUpdate": true,
  "listProperties": [
    "id", "description"
  ],
  "primaryKey": "id",
  "sortBy": 0
}